id_etab,ville,code_iso,name,acronym,logo,website,lat,lon
52,Göteborg,SE,Chalmers University of Technology,,https://cloud.floflo.ch/index.php/s/beLpNajWs9WmPmr/download,https://www.chalmers.se/en,57.6897091,11.9719714
59,Gent,BE,Universiteit Gent,UGent,https://upload.wikimedia.org/wikipedia/fr/5/5c/Universit%C3%A9_de_Gand_%28logo%29.svg,https://www.ugent.be/en,51.0450413,3.7255573
74,Hamilton,CA,McMaster University,,https://upload.wikimedia.org/wikipedia/en/5/53/McMaster_University_logo.svg,https://www.mcmaster.ca/,43.2608829,-79.9214194
89,Urbana,US,University of Illinois Urbana-Champaign,,https://upload.wikimedia.org/wikipedia/commons/9/9c/University_of_Illinois_at_Urbana%E2%80%93Champaign_logo.svg,https://illinois.edu/,40.1019564,-88.2293555
92,Sherbrooke,CA,Université de Sherbrooke,,https://upload.wikimedia.org/wikipedia/fr/6/63/Universit%C3%A9_de_Sherbrooke_%28logo%29.svg,https://www.usherbrooke.ca/,45.3796391,-71.9325824
94,Kingston,US,University of Rhode Island,URI,https://upload.wikimedia.org/wikipedia/en/e/e0/University_of_Rhode_Island_seal.svg,https://www.uri.edu/,41.8227726,-71.4157738
102,Milan,IT,Politecnico di Milano,,https://cloud.floflo.ch/index.php/s/bjBMcJwfjs6TAm5/download,https://www.polimi.it/en/,45.4782722,9.2263196
112,Luleå,SE,Luleå University of Technology,,https://upload.wikimedia.org/wikipedia/commons/d/d3/LTU_logo.svg,https://www.ltu.se/?l=en,65.6170445,22.13706063
203,Lausanne,CH,École Polytechnique Fédérale de Lausanne,,https://upload.wikimedia.org/wikipedia/commons/f/f4/Logo_EPFL.svg,https://www.epfl.ch/fr/,46.5186594,6.566561505
171,Singapore,SG,National University of Singapore,NUS,https://upload.wikimedia.org/wikipedia/en/9/9b/NationalUniversityofSingapore.svg,http://nus.edu.sg/,1.3186413,103.8144945
195,Victoria,AU,Swinburne University of Technology,Swinburne,https://cloud.floflo.ch/index.php/s/YjmirFoT3TB8R9j/download,https://www.swinburne.edu.au/,-37.85240845,144.9918226
301,Shanghaï,CN,Université de technologie sino-européenne de l'université de Shanghai,Utseus,https://upload.wikimedia.org/wikipedia/fr/1/11/Utseus_logo.png,utseus.com/fr/,31.3888642,121.2722844