[
  "photos",
  "insurance",
  "transport",
  "accommodation",
  "student_life",
  "everyday_life",
  "other",
  "administrative",
  "culture",
  "tourism",
  "shared_comment",
  "specific_partnership"
]
