{
  "options": {
    "paths": {
      "styles": "styles",
      "fonts": "../fonts"
    }
  },
  "styles": {
    "dark": {
      "style": "dark/style.json"
    },
    "light": {
      "style": "light/style.json"
    },
    "osm-bright": {
      "style": "osm-bright/style.json"
    }
  },
  "data": {
    "v3": {
      "mbtiles": "../planet.mbtiles"
    }
  }
}
